:);SMILEYS_SMILE;/media/editors/tinymce/jscripts/tiny_mce/plugins/emotions/img/smiley-smile.gif
:-);SMILEYS_SMILE;/media/editors/tinymce/jscripts/tiny_mce/plugins/emotions/img/smiley-smile.gif
8-);SMILEYS_COOL;/media/editors/tinymce/jscripts/tiny_mce/plugins/emotions/img/smiley-cool.gif
:cry:;SMILEYS_CRYING;/media/editors/tinymce/jscripts/tiny_mce/plugins/emotions/img/smiley-cry.gif
:oops:;SMILEYS_EMBARRASSED;/media/editors/tinymce/jscripts/tiny_mce/plugins/emotions/img/smiley-embarassed.gif
:-!;SMILEYS_FOOT_IN_MOUTH;/media/editors/tinymce/jscripts/tiny_mce/plugins/emotions/img/smiley-foot-in-mouth.gif
:(;SMILEYS_SAD;/media/editors/tinymce/jscripts/tiny_mce/plugins/emotions/img/smiley-frown.gif
:angel:;SMILEYS_ANGEL;/media/editors/tinymce/jscripts/tiny_mce/plugins/emotions/img/smiley-innocent.gif
:-X;SMILEYS_KISS;/media/editors/tinymce/jscripts/tiny_mce/plugins/emotions/img/smiley-kiss.gif
:lol:;SMILEYS_LAUGHING;/media/editors/tinymce/jscripts/tiny_mce/plugins/emotions/img/smiley-laughing.gif
:-$;SMILEYS_MONEY_MOUTH;/media/editors/tinymce/jscripts/tiny_mce/plugins/emotions/img/smiley-money-mouth.gif
:-#;SMILEYS_SEALED;/media/editors/tinymce/jscripts/tiny_mce/plugins/emotions/img/smiley-sealed.gif
:o;SMILEYS_SURPRISED;/media/editors/tinymce/jscripts/tiny_mce/plugins/emotions/img/smiley-surprised.gif
:-P;SMILEYS_TONGUE;/media/editors/tinymce/jscripts/tiny_mce/plugins/emotions/img/smiley-tongue-out.gif
:?;SMILEYS_CONFUSED;/media/editors/tinymce/jscripts/tiny_mce/plugins/emotions/img/smiley-undecided.gif
";)";SMILEYS_WINK;/media/editors/tinymce/jscripts/tiny_mce/plugins/emotions/img/smiley-wink.gif
:O;SMILEYS_YELL;/media/editors/tinymce/jscripts/tiny_mce/plugins/emotions/img/smiley-yell.gif
